Tidy Survival Analysis: Applying R’s Tidyverse to Survival Data – Tidy Survival Analysis — A Workshop
…
Create a table of survival estimates with 95% confidence intervals at 6, 12, 24, and 36 months for each hormone therapy group using dplyr and tibble.

Tidying survfit() Output

Use broom package to tidy survfit objects

broom::tidy() converts the survfit object into a tidy data frame

Useful for further analysis or visualization

library(broom) # Load broom package
tidy(km_fit) # Tidy the KM fit object

# A tibble: 613 × 9
    time n.risk n.event n.censor estimate std.error conf.high conf.low strata   
   <dbl>  <dbl>   <dbl>    <dbl>    <dbl>     <dbl>     <dbl>    <dbl> <chr>    
 1 0.262    440       0        1    1       0               1    1     hormone=1
 2 0.525    439       0        1    1       0               1    1     hormone=1
 3 0.557    438       0        2    1       0               1    1     hormone=1
 4 0.590    436       0        1    1       0               1    1     hormone=1
 5 0.951    435       0        1    1       0               1    1     hormone=1
 6 1.87     434       0        1    1       0               1    1     hormone=1
 7 2.13     433       0        1    1       0               1    1     hormone=1
 8 2.20     432       0        1    1       0               1    1     hormone=1
 9 2.33     431       0        1    1       0               1    1     hormone=1
10 2.36     430       1        0    0.998   0.00233         1    0.993 hormone=1
# ℹ 603 more rows
…
